one-shot/sim/debug.vcd
$version Generated by VerilatedVcd $end
$timescale 1ps $end
 $scope module TOP $end
  $scope module ics2115_pkg $end
   $var wire 8 H$ CHIP_REVISION [7:0] $end
   $var wire 32 I$ NUM_VOICES [31:0] $end
   $var wire 5 J$ DEFAULT_ACTIVE_OSC [4:0] $end
   $var wire 7 K$ MAX_RAMP [6:0] $end
   $var wire 32 L$ VOLUME_BITS [31:0] $end
   $var wire 32 M$ OSC_ULAW [31:0] $end
   $var wire 32 N$ OSC_STOP [31:0] $end
   $var wire 32 O$ OSC_EIGHTBIT [31:0] $end
   $var wire 32 P$ OSC_LOOP [31:0] $end
   $var wire 32 Q$ OSC_BIDIR [31:0] $end
   $var wire 32 R$ OSC_IRQ [31:0] $end
   $var wire 32 S$ OSC_INVERT [31:0] $end
   $var wire 32 T$ OSC_IRQ_PEND [31:0] $end
   $var wire 32 M$ VOL_DONE [31:0] $end
   $var wire 32 N$ VOL_STOP [31:0] $end
   $var wire 32 O$ VOL_ROLLOVER [31:0] $end
   $var wire 32 P$ VOL_LOOP [31:0] $end
   $var wire 32 Q$ VOL_BIDIR [31:0] $end
   $var wire 32 R$ VOL_IRQ [31:0] $end
   $var wire 32 S$ VOL_INVERT [31:0] $end
   $var wire 32 T$ VOL_IRQ_PEND [31:0] $end
  $upscope $end
  $var wire 1 *$ clk $end
  $var wire 1 +$ ce $end
  $var wire 1 ,$ reset_n $end
  $var wire 2 -$ host_addr [1:0] $end
  $var wire 16 .$ host_din [15:0] $end
  $var wire 16 /$ host_dout [15:0] $end
  $var wire 1 0$ host_cs_n $end
  $var wire 1 1$ host_rd_n $end
  $var wire 1 2$ host_wr_n $end
  $var wire 1 3$ host_irq $end
  $var wire 1 4$ host_ready $end
  $var wire 23 5$ rom_addr [22:0] $end
  $var wire 16 6$ rom_data [15:0] $end
  $var wire 1 7$ rom_rd $end
  $var wire 1 8$ dac_bck $end
  $var wire 1 9$ dac_lrck $end
  $var wire 1 :$ dac_wdck $end
  $var wire 1 ;$ dac_sdata $end
  $scope module ics2115 $end
   $var wire 1 *$ clk $end
   $var wire 1 +$ ce $end
   $var wire 1 ,$ reset_n $end
   $var wire 2 -$ host_addr [1:0] $end
   $var wire 16 .$ host_din [15:0] $end
   $var wire 16 /$ host_dout [15:0] $end
   $var wire 1 0$ host_cs_n $end
   $var wire 1 1$ host_rd_n $end
   $var wire 1 2$ host_wr_n $end
   $var wire 1 3$ host_irq $end
   $var wire 1 4$ host_ready $end
   $var wire 23 5$ rom_addr [22:0] $end
   $var wire 16 6$ rom_data [15:0] $end
   $var wire 1 7$ rom_rd $end
   $var wire 1 8$ dac_bck $end
   $var wire 1 9$ dac_lrck $end
   $var wire 1 :$ dac_wdck $end
   $var wire 1 ;$ dac_sdata $end
   $var wire 245 ' voice[0] [244:0] $end
   $var wire 245 / voice[1] [244:0] $end
   $var wire 245 7 voice[2] [244:0] $end
   $var wire 245 ? voice[3] [244:0] $end
   $var wire 245 G voice[4] [244:0] $end
   $var wire 245 O voice[5] [244:0] $end
   $var wire 245 W voice[6] [244:0] $end
   $var wire 245 _ voice[7] [244:0] $end
   $var wire 245 g voice[8] [244:0] $end
   $var wire 245 o voice[9] [244:0] $end
   $var wire 245 w voice[10] [244:0] $end
   $var wire 245 !! voice[11] [244:0] $end
   $var wire 245 )! voice[12] [244:0] $end
   $var wire 245 1! voice[13] [244:0] $end
   $var wire 245 9! voice[14] [244:0] $end
   $var wire 245 A! voice[15] [244:0] $end
   $var wire 245 I! voice[16] [244:0] $end
   $var wire 245 Q! voice[17] [244:0] $end
   $var wire 245 Y! voice[18] [244:0] $end
   $var wire 245 a! voice[19] [244:0] $end
   $var wire 245 i! voice[20] [244:0] $end
   $var wire 245 q! voice[21] [244:0] $end
   $var wire 245 y! voice[22] [244:0] $end
   $var wire 245 #" voice[23] [244:0] $end
   $var wire 245 +" voice[24] [244:0] $end
   $var wire 245 3" voice[25] [244:0] $end
   $var wire 245 ;" voice[26] [244:0] $end
   $var wire 245 C" voice[27] [244:0] $end
   $var wire 245 K" voice[28] [244:0] $end
   $var wire 245 S" voice[29] [244:0] $end
   $var wire 245 [" voice[30] [244:0] $end
   $var wire 245 c" voice[31] [244:0] $end
   $var wire 5 k" active_osc [4:0] $end
   $var wire 5 l" osc_select [4:0] $end
   $var wire 8 m" reg_select [7:0] $end
   $var wire 8 n" irq_enabled [7:0] $end
   $var wire 8 o" irq_pending [7:0] $end
   $var wire 8 p" vmode [7:0] $end
   $var wire 1 q" irq_on $end
   $var wire 8 r" timer_preset[0] [7:0] $end
   $var wire 8 s" timer_preset[1] [7:0] $end
   $var wire 8 t" timer_scale[0] [7:0] $end
   $var wire 8 u" timer_scale[1] [7:0] $end
   $var wire 1 v" timer_reload[0] $end
   $var wire 1 w" timer_reload[1] $end
   $var wire 16 x" sample_div_counter [15:0] $end
   $var wire 16 y" sample_div_period [15:0] $end
   $var wire 1 z" sample_tick $end
   $var wire 8 m" hif_reg_select [7:0] $end
   $var wire 16 <$ hif_reg_wdata [15:0] $end
   $var wire 2 =$ hif_reg_wmask [1:0] $end
   $var wire 1 >$ hif_reg_wr $end
   $var wire 1 $ hif_reg_rd $end
   $var wire 16 {" hif_reg_rdata [15:0] $end
   $var wire 1 |" timer_irq_any $end
   $var wire 1 }" voice_irq_any $end
   $var wire 1 ~" timer0_fire $end
   $var wire 1 !# timer1_fire $end
   $var wire 12 ?$ vol_table_addr [11:0] $end
   $var wire 16 @$ vol_table_data [15:0] $end
   $var wire 8 "# pan_table_addr [7:0] $end
   $var wire 12 ## pan_table_data [11:0] $end
   $var wire 8 $# ulaw_table_addr [7:0] $end
   $var wire 16 %# ulaw_table_data [15:0] $end
   $var wire 5 &# pipe_voice_idx [4:0] $end
   $var wire 1 '# pipe_voice_rd $end
   $var wire 1 (# pipe_voice_wr $end
   $var wire 245 )# pipe_voice_rdata [244:0] $end
   $var wire 245 1# pipe_voice_wdata [244:0] $end
   $var wire 1 9# pipe_voice_busy $end
   $var wire 24 :# pipe_rom_byte_addr [23:0] $end
   $var wire 1 ;# pipe_rom_rd $end
   $var wire 24 <# pipe_audio_l [23:0] $end
   $var wire 24 =# pipe_audio_r [23:0] $end
   $var wire 1 ># pipe_audio_valid $end
   $var wire 1 ?# pipe_irq_changed $end
   $var wire 16 @# dac_audio_l [15:0] $end
   $var wire 16 A# dac_audio_r [15:0] $end
   $var wire 1 B# dac_audio_load $end
   $var wire 1 A$ host_accessing_voice_reg $end
   $var wire 8 C# conf_read_c [7:0] $end
   $var wire 8 D# irqv_result [7:0] $end
   $var wire 5 E# irqv_voice [4:0] $end
   $var wire 1 F# irqv_osc_pending $end
   $var wire 1 G# irqv_vol_pending $end
   $var wire 1 H# irqv_found $end
   $var wire 1 B$ reg0f_rd_pulse $end
   $var wire 1 I# reg0f_rd_prev $end
   $scope module u_dac $end
    $var wire 1 *$ clk $end
    $var wire 1 +$ ce $end
    $var wire 1 ,$ reset_n $end
    $var wire 16 @# audio_l [15:0] $end
    $var wire 16 A# audio_r [15:0] $end
    $var wire 1 B# audio_load $end
    $var wire 1 8$ bck $end
    $var wire 1 9$ lrck $end
    $var wire 1 :$ wdck $end
    $var wire 1 ;$ sdata $end
    $var wire 2 J# bck_div [1:0] $end
    $var wire 1 C$ bck_fall $end
    $var wire 1 K# bck_prev $end
    $var wire 48 L# shift_reg [47:0] $end
    $var wire 6 N# frame_cnt [5:0] $end
    $var wire 1 O# frame_active $end
    $var wire 24 P# left_24 [23:0] $end
    $var wire 24 Q# right_24 [23:0] $end
   $upscope $end
   $scope module u_host_if $end
    $var wire 1 *$ clk $end
    $var wire 1 ,$ reset_n $end
    $var wire 2 -$ addr [1:0] $end
    $var wire 16 .$ din [15:0] $end
    $var wire 16 /$ dout [15:0] $end
    $var wire 1 0$ cs_n $end
    $var wire 1 1$ rd_n $end
    $var wire 1 2$ wr_n $end
    $var wire 8 m" reg_select [7:0] $end
    $var wire 16 <$ reg_wdata [15:0] $end
    $var wire 2 =$ reg_wmask [1:0] $end
    $var wire 1 >$ reg_wr $end
    $var wire 1 $ reg_rd $end
    $var wire 16 {" reg_rdata [15:0] $end
    $var wire 1 q" irq_on $end
    $var wire 1 |" timer_irq_any $end
    $var wire 1 }" voice_irq_any $end
    $var wire 1 R# rd_prev $end
    $var wire 1 S# wr_prev $end
    $var wire 1 % rd_active $end
    $var wire 1 & wr_active $end
    $var wire 1 D$ rd_pulse $end
    $var wire 1 E$ wr_pulse $end
   $upscope $end
   $scope module u_tables $end
    $var wire 1 *$ clk $end
    $var wire 12 ?$ vol_addr [11:0] $end
    $var wire 16 @$ vol_data [15:0] $end
    $var wire 8 "# pan_addr [7:0] $end
    $var wire 12 ## pan_data [11:0] $end
    $var wire 8 $# ulaw_addr [7:0] $end
    $var wire 16 %# ulaw_data [15:0] $end
    $scope module unnamedblk1 $end
     $var wire 32 # i [31:0] $end
    $upscope $end
    $scope module unnamedblk2 $end
     $var wire 3 T# ulaw_exp [2:0] $end
     $var wire 4 U# ulaw_mant [3:0] $end
     $var wire 16 V# lut_base [15:0] $end
     $var wire 16 W# ulaw_value [15:0] $end
    $upscope $end
   $upscope $end
   $scope module u_timers $end
    $var wire 1 *$ clk $end
    $var wire 1 +$ ce $end
    $var wire 1 ,$ reset_n $end
    $var wire 8 X# timer0_preset [7:0] $end
    $var wire 8 Y# timer0_scale [7:0] $end
    $var wire 1 Z# timer0_reload $end
    $var wire 1 ~" timer0_fire $end
    $var wire 8 [# timer1_preset [7:0] $end
    $var wire 8 \# timer1_scale [7:0] $end
    $var wire 1 ]# timer1_reload $end
    $var wire 1 !# timer1_fire $end
    $var wire 32 ^# timer0_counter [31:0] $end
    $var wire 32 _# timer0_period [31:0] $end
    $var wire 32 `# timer1_counter [31:0] $end
    $var wire 32 a# timer1_period [31:0] $end
   $upscope $end
   $scope module u_voice $end
    $var wire 1 *$ clk $end
    $var wire 1 ,$ reset_n $end
    $var wire 1 z" sample_tick $end
    $var wire 5 k" active_osc [4:0] $end
    $var wire 8 p" vmode [7:0] $end
    $var wire 5 &# voice_idx [4:0] $end
    $var wire 1 '# voice_rd $end
    $var wire 1 (# voice_wr $end
    $var wire 245 )# voice_rdata [244:0] $end
    $var wire 245 1# voice_wdata [244:0] $end
    $var wire 1 9# voice_busy $end
    $var wire 24 :# rom_byte_addr [23:0] $end
    $var wire 1 ;# rom_rd $end
    $var wire 16 6$ rom_data [15:0] $end
    $var wire 12 ?$ vol_table_addr [11:0] $end
    $var wire 16 @$ vol_table_data [15:0] $end
    $var wire 8 "# pan_table_addr [7:0] $end
    $var wire 12 ## pan_table_data [11:0] $end
    $var wire 8 $# ulaw_table_addr [7:0] $end
    $var wire 16 %# ulaw_table_data [15:0] $end
    $var wire 24 <# audio_out_l [23:0] $end
    $var wire 24 =# audio_out_r [23:0] $end
    $var wire 1 ># audio_valid $end
    $var wire 1 ?# irq_changed $end
    $var wire 5 b# state [4:0] $end
    $var wire 245 c# v [244:0] $end
    $var wire 5 k# cur_voice [4:0] $end
    $var wire 24 l# accum_l [23:0] $end
    $var wire 24 m# accum_r [23:0] $end
    $var wire 16 n# sample1 [15:0] $end
    $var wire 16 o# sample2 [15:0] $end
    $var wire 16 p# interp_sample [15:0] $end
    $var wire 9 q# interp_frac [8:0] $end
    $var wire 16 r# vleft [15:0] $end
    $var wire 13 s# vlefti [12:0] $end
    $var wire 13 t# vrighti [12:0] $end
    $var wire 12 u# volacc [11:0] $end
    $var wire 1 v# irq_flag $end
    $var wire 30 w# osc_left_c [29:0] $end
    $var wire 1 x# new_invert_c $end
    $var wire 20 y# next_addr_c [19:0] $end
    $var wire 20 z# cur_addr_c [19:0] $end
    $var wire 29 {# remaining_c [28:0] $end
    $var wire 32 |# s1_shifted_c [31:0] $end
    $var wire 32 }# diff_frac_c [31:0] $end
    $var wire 32 ~# interp_result_c [31:0] $end
    $var wire 26 !$ vol_add_c [25:0] $end
    $var wire 27 "$ vol_left_c [26:0] $end
    $var wire 13 #$ pan_idx_c [12:0] $end
    $var wire 16 $$ vright_now_c [15:0] $end
    $var wire 32 %$ mix_l_c [31:0] $end
    $var wire 32 &$ mix_r_c [31:0] $end
    $var wire 1 '$ voice_playing $end
    $var wire 8 F$ rom_byte [7:0] $end
   $upscope $end
   $scope module unnamedblk1 $end
    $var wire 32 G$ i [31:0] $end
   $upscope $end
   $scope module unnamedblk2 $end
    $var wire 1 ($ any_voice_irq $end
    $scope module unnamedblk3 $end
     $var wire 32 G$ i [31:0] $end
    $upscope $end
   $upscope $end
   $scope module unnamedblk4 $end
    $var wire 32 G$ i [31:0] $end
   $upscope $end
   $scope module unnamedblk5 $end
    $var wire 32 )$ i [31:0] $end
   $upscope $end
  $upscope $end
 $upscope $end
$enddefinitions $end


#0
b00000000000000000001000000000000 #
0$
0%
0&
b00000000000000000000000000000000000000000000000000000000000000000000000000000000000000000000000000000000000000000000000000000000000000000000000000000000000000000000000000000000000000000000000000000000000000000000000000000000000000000000000000000 '
b00000000000000000000000000000000000000000000000000000000000000000000000000000000000000000000000000000000000000000000000000000000000000000000000000000000000000000000000000000000000000000000000000000000000000000000000000000000000000000000000000000 /
b00000000000000000000000000000000000000000000000000000000000000000000000000000000000000000000000000000000000000000000000000000000000000000000000000000000000000000000000000000000000000000000000000000000000000000000000000000000000000000000000000000 7
b00000000000000000000000000000000000000000000000000000000000000000000000000000000000000000000000000000000000000000000000000000000000000000000000000000000000000000000000000000000000000000000000000000000000000000000000000000000000000000000000000000 ?
b00000000000000000000000000000000000000000000000000000000000000000000000000000000000000000000000000000000000000000000000000000000000000000000000000000000000000000000000000000000000000000000000000000000000000000000000000000000000000000000000000000 G
b00000000000000000000000000000000000000000000000000000000000000000000000000000000000000000000000000000000000000000000000000000000000000000000000000000000000000000000000000000000000000000000000000000000000000000000000000000000000000000000000000000 O
b00000000000000000000000000000000000000000000000000000000000000000000000000000000000000000000000000000000000000000000000000000000000000000000000000000000000000000000000000000000000000000000000000000000000000000000000000000000000000000000000000000 W
b00000000000000000000000000000000000000000000000000000000000000000000000000000000000000000000000000000000000000000000000000000000000000000000000000000000000000000000000000000000000000000000000000000000000000000000000000000000000000000000000000000 _
b00000000000000000000000000000000000000000000000000000000000000000000000000000000000000000000000000000000000000000000000000000000000000000000000000000000000000000000000000000000000000000000000000000000000000000000000000000000000000000000000000000 g
b00000000000000000000000000000000000000000000000000000000000000000000000000000000000000000000000000000000000000000000000000000000000000000000000000000000000000000000000000000000000000000000000000000000000000000000000000000000000000000000000000000 o
b00000000000000000000000000000000000000000000000000000000000000000000000000000000000000000000000000000000000000000000000000000000000000000000000000000000000000000000000000000000000000000000000000000000000000000000000000000000000000000000000000000 w
b00000000000000000000000000000000000000000000000000000000000000000000000000000000000000000000000000000000000000000000000000000000000000000000000000000000000000000000000000000000000000000000000000000000000000000000000000000000000000000000000000000 !!
b00000000000000000000000000000000000000000000000000000000000000000000000000000000000000000000000000000000000000000000000000000000000000000000000000000000000000000000000000000000000000000000000000000000000000000000000000000000000000000000000000000 )!
b00000000000000000000000000000000000000000000000000000000000000000000000000000000000000000000000000000000000000000000000000000000000000000000000000000000000000000000000000000000000000000000000000000000000000000000000000000000000000000000000000000 1!
b00000000000000000000000000000000000000000000000000000000000000000000000000000000000000000000000000000000000000000000000000000000000000000000000000000000000000000000000000000000000000000000000000000000000000000000000000000000000000000000000000000 9!
b00000000000000000000000000000000000000000000000000000000000000000000000000000000000000000000000000000000000000000000000000000000000000000000000000000000000000000000000000000000000000000000000000000000000000000000000000000000000000000000000000000 A!
b00000000000000000000000000000000000000000000000000000000000000000000000000000000000000000000000000000000000000000000000000000000000000000000000000000000000000000000000000000000000000000000000000000000000000000000000000000000000000000000000000000 I!
b00000000000000000000000000000000000000000000000000000000000000000000000000000000000000000000000000000000000000000000000000000000000000000000000000000000000000000000000000000000000000000000000000000000000000000000000000000000000000000000000000000 Q!
b00000000000000000000000000000000000000000000000000000000000000000000000000000000000000000000000000000000000000000000000000000000000000000000000000000000000000000000000000000000000000000000000000000000000000000000000000000000000000000000000000000 Y!
b00000000000000000000000000000000000000000000000000000000000000000000000000000000000000000000000000000000000000000000000000000000000000000000000000000000000000000000000000000000000000000000000000000000000000000000000000000000000000000000000000000 a!
b00000000000000000000000000000000000000000000000000000000000000000000000000000000000000000000000000000000000000000000000000000000000000000000000000000000000000000000000000000000000000000000000000000000000000000000000000000000000000000000000000000 i!
b00000000000000000000000000000000000000000000000000000000000000000000000000000000000000000000000000000000000000000000000000000000000000000000000000000000000000000000000000000000000000000000000000000000000000000000000000000000000000000000000000000 q!
b00000000000000000000000000000000000000000000000000000000000000000000000000000000000000000000000000000000000000000000000000000000000000000000000000000000000000000000000000000000000000000000000000000000000000000000000000000000000000000000000000000 y!
b00000000000000000000000000000000000000000000000000000000000000000000000000000000000000000000000000000000000000000000000000000000000000000000000000000000000000000000000000000000000000000000000000000000000000000000000000000000000000000000000000000 #"
b00000000000000000000000000000000000000000000000000000000000000000000000000000000000000000000000000000000000000000000000000000000000000000000000000000000000000000000000000000000000000000000000000000000000000000000000000000000000000000000000000000 +"
b00000000000000000000000000000000000000000000000000000000000000000000000000000000000000000000000000000000000000000000000000000000000000000000000000000000000000000000000000000000000000000000000000000000000000000000000000000000000000000000000000000 3"
b00000000000000000000000000000000000000000000000000000000000000000000000000000000000000000000000000000000000000000000000000000000000000000000000000000000000000000000000000000000000000000000000000000000000000000000000000000000000000000000000000000 ;"
b00000000000000000000000000000000000000000000000000000000000000000000000000000000000000000000000000000000000000000000000000000000000000000000000000000000000000000000000000000000000000000000000000000000000000000000000000000000000000000000000000000 C"
b00000000000000000000000000000000000000000000000000000000000000000000000000000000000000000000000000000000000000000000000000000000000000000000000000000000000000000000000000000000000000000000000000000000000000000000000000000000000000000000000000000 K"
b00000000000000000000000000000000000000000000000000000000000000000000000000000000000000000000000000000000000000000000000000000000000000000000000000000000000000000000000000000000000000000000000000000000000000000000000000000000000000000000000000000 S"
b00000000000000000000000000000000000000000000000000000000000000000000000000000000000000000000000000000000000000000000000000000000000000000000000000000000000000000000000000000000000000000000000000000000000000000000000000000000000000000000000000000 ["
b00000000000000000000000000000000000000000000000000000000000000000000000000000000000000000000000000000000000000000000000000000000000000000000000000000000000000000000000000000000000000000000000000000000000000000000000000000000000000000000000000000 c"
b00000 k"
b00000 l"
b00000000 m"
b00000000 n"
b00000000 o"
b00000000 p"
0q"
b00000000 r"
b00000000 s"
b00000000 t"
b00000000 u"
0v"
0w"
b0000000000000000 x"
b0000000000100000 y"
0z"
b0000000000000000 {"
0|"
0}"
0~"
0!#
b00000000 "#
b111111111111 ##
b00000000 $#
b0111110101111100 %#
b00000 &#
0'#
0(#
b00000000000000000000000000000000000000000000000000000000000000000000000000000000000000000000000000000000000000000000000000000000000000000000000000000000000000000000000000000000000000000000000000000000000000000000000000000000000000000000000000000 )#
b00000000000000000000000000000000000000000000000000000000000000000000000000000000000000000000000000000000000000000000000000000000000000000000000000000000000000000000000000000000000000000000000000000000000000000000000000000000000000000000000000000 1#
09#
b000000000000000000000000 :#
0;#
b000000000000000000000000 <#
b000000000000000000000000 =#
0>#
0?#
b0000000000000000 @#
b0000000000000000 A#
0B#
b00000000 C#
b11111111 D#
b00000 E#
0F#
0G#
0H#
0I#
b00 J#
0K#
b000000000000000000000000000000000000000000000000 L#
b000000 N#
0O#
b000000000000000000000000 P#
b000000000000000000000000 Q#
0R#
0S#
b111 T#
b1111 U#
b0100000101111100 V#
b0111110101111100 W#
b00000000 X#
b00000000 Y#
0Z#
b00000000 [#
b00000000 \#
0]#
b00000000000000000000000000000000 ^#
b00000000000000000000000000000000 _#
b00000000000000000000000000000000 `#
b00000000000000000000000000000000 a#
b00000 b#
b00000000000000000000000000000000000000000000000000000000000000000000000000000000000000000000000000000000000000000000000000000000000000000000000000000000000000000000000000000000000000000000000000000000000000000000000000000000000000000000000000000 c#
b00000 k#
b000000000000000000000000 l#
b000000000000000000000000 m#
b0000000000000000 n#
b0000000000000000 o#
b0000000000000000 p#
b000000000 q#
b0000000000000000 r#
b0000000000000 s#
b0000000000000 t#
b000000000000 u#
0v#
b000000000000000000000000000000 w#
0x#
b00000000000000000000 y#
b00000000000000000000 z#
b00000000000000000000000000000 {#
b00000000000000000000000000000000 |#
b00000000000000000000000000000000 }#
b00000000000000000000000000000000 ~#
b00000000000000000000000000 !$
b000000000000000000000000000 "$
b0000000000000 #$
b0000000000000000 $$
b00000000000000000000000000000000 %$
b00000000000000000000000000000000 &$
0'$
0($
b00000000000000000000000000000000 )$
1*$
0+$
0,$
b00 -$
b0000000000000000 .$
b0000000000000000 /$
10$
11$
12$
03$
14$
b00000000000000000000000 5$
b0000000000000000 6$
07$
08$
09$
0:$
0;$
b0000000000000000 <$
b00 =$
0>$
b000000000000 ?$
b0000000000000000 @$
0A$
0B$
0C$
0D$
0E$
b00000000 F$
b00000000000000000000000000100000 G$
b00000001 H$
b00000000000000000000000000100000 I$
b11111 J$
b1000000 K$
b00000000000000000000000000001111 L$
b00000000000000000000000000000000 M$
b00000000000000000000000000000001 N$
b00000000000000000000000000000010 O$
b00000000000000000000000000000011 P$
b00000000000000000000000000000100 Q$
b00000000000000000000000000000101 R$
b00000000000000000000000000000110 S$
b00000000000000000000000000000111 T$
#1
0*$
#2
b00000000000000000000000000000000000000000000000000000000000000000000000000000000000000000000000000000000000000000000010000000000000000000000000000000000000000000000000000000000000000000000000000000000000000000000001111111000000010000000000000000 '
b00000000000000000000000000000000000000000000000000000000000000000000000000000000000000000000000000000000000000000000010000000000000000000000000000000000000000000000000000000000000000000000000000000000000000000000001111111000000010000000000000000 /
b00000000000000000000000000000000000000000000000000000000000000000000000000000000000000000000000000000000000000000000010000000000000000000000000000000000000000000000000000000000000000000000000000000000000000000000001111111000000010000000000000000 7
b00000000000000000000000000000000000000000000000000000000000000000000000000000000000000000000000000000000000000000000010000000000000000000000000000000000000000000000000000000000000000000000000000000000000000000000001111111000000010000000000000000 ?
b00000000000000000000000000000000000000000000000000000000000000000000000000000000000000000000000000000000000000000000010000000000000000000000000000000000000000000000000000000000000000000000000000000000000000000000001111111000000010000000000000000 G
b00000000000000000000000000000000000000000000000000000000000000000000000000000000000000000000000000000000000000000000010000000000000000000000000000000000000000000000000000000000000000000000000000000000000000000000001111111000000010000000000000000 O
b00000000000000000000000000000000000000000000000000000000000000000000000000000000000000000000000000000000000000000000010000000000000000000000000000000000000000000000000000000000000000000000000000000000000000000000001111111000000010000000000000000 W
b00000000000000000000000000000000000000000000000000000000000000000000000000000000000000000000000000000000000000000000010000000000000000000000000000000000000000000000000000000000000000000000000000000000000000000000001111111000000010000000000000000 _
b00000000000000000000000000000000000000000000000000000000000000000000000000000000000000000000000000000000000000000000010000000000000000000000000000000000000000000000000000000000000000000000000000000000000000000000001111111000000010000000000000000 g
b00000000000000000000000000000000000000000000000000000000000000000000000000000000000000000000000000000000000000000000010000000000000000000000000000000000000000000000000000000000000000000000000000000000000000000000001111111000000010000000000000000 o
b00000000000000000000000000000000000000000000000000000000000000000000000000000000000000000000000000000000000000000000010000000000000000000000000000000000000000000000000000000000000000000000000000000000000000000000001111111000000010000000000000000 w
b00000000000000000000000000000000000000000000000000000000000000000000000000000000000000000000000000000000000000000000010000000000000000000000000000000000000000000000000000000000000000000000000000000000000000000000001111111000000010000000000000000 !!
b00000000000000000000000000000000000000000000000000000000000000000000000000000000000000000000000000000000000000000000010000000000000000000000000000000000000000000000000000000000000000000000000000000000000000000000001111111000000010000000000000000 )!
b00000000000000000000000000000000000000000000000000000000000000000000000000000000000000000000000000000000000000000000010000000000000000000000000000000000000000000000000000000000000000000000000000000000000000000000001111111000000010000000000000000 1!
b00000000000000000000000000000000000000000000000000000000000000000000000000000000000000000000000000000000000000000000010000000000000000000000000000000000000000000000000000000000000000000000000000000000000000000000001111111000000010000000000000000 9!
b00000000000000000000000000000000000000000000000000000000000000000000000000000000000000000000000000000000000000000000010000000000000000000000000000000000000000000000000000000000000000000000000000000000000000000000001111111000000010000000000000000 A!
b00000000000000000000000000000000000000000000000000000000000000000000000000000000000000000000000000000000000000000000010000000000000000000000000000000000000000000000000000000000000000000000000000000000000000000000001111111000000010000000000000000 I!
b00000000000000000000000000000000000000000000000000000000000000000000000000000000000000000000000000000000000000000000010000000000000000000000000000000000000000000000000000000000000000000000000000000000000000000000001111111000000010000000000000000 Q!
b00000000000000000000000000000000000000000000000000000000000000000000000000000000000000000000000000000000000000000000010000000000000000000000000000000000000000000000000000000000000000000000000000000000000000000000001111111000000010000000000000000 Y!
b00000000000000000000000000000000000000000000000000000000000000000000000000000000000000000000000000000000000000000000010000000000000000000000000000000000000000000000000000000000000000000000000000000000000000000000001111111000000010000000000000000 a!
b00000000000000000000000000000000000000000000000000000000000000000000000000000000000000000000000000000000000000000000010000000000000000000000000000000000000000000000000000000000000000000000000000000000000000000000001111111000000010000000000000000 i!
b00000000000000000000000000000000000000000000000000000000000000000000000000000000000000000000000000000000000000000000010000000000000000000000000000000000000000000000000000000000000000000000000000000000000000000000001111111000000010000000000000000 q!
b00000000000000000000000000000000000000000000000000000000000000000000000000000000000000000000000000000000000000000000010000000000000000000000000000000000000000000000000000000000000000000000000000000000000000000000001111111000000010000000000000000 y!
b00000000000000000000000000000000000000000000000000000000000000000000000000000000000000000000000000000000000000000000010000000000000000000000000000000000000000000000000000000000000000000000000000000000000000000000001111111000000010000000000000000 #"
b00000000000000000000000000000000000000000000000000000000000000000000000000000000000000000000000000000000000000000000010000000000000000000000000000000000000000000000000000000000000000000000000000000000000000000000001111111000000010000000000000000 +"
b00000000000000000000000000000000000000000000000000000000000000000000000000000000000000000000000000000000000000000000010000000000000000000000000000000000000000000000000000000000000000000000000000000000000000000000001111111000000010000000000000000 3"
b00000000000000000000000000000000000000000000000000000000000000000000000000000000000000000000000000000000000000000000010000000000000000000000000000000000000000000000000000000000000000000000000000000000000000000000001111111000000010000000000000000 ;"
b00000000000000000000000000000000000000000000000000000000000000000000000000000000000000000000000000000000000000000000010000000000000000000000000000000000000000000000000000000000000000000000000000000000000000000000001111111000000010000000000000000 C"
b00000000000000000000000000000000000000000000000000000000000000000000000000000000000000000000000000000000000000000000010000000000000000000000000000000000000000000000000000000000000000000000000000000000000000000000001111111000000010000000000000000 K"
b00000000000000000000000000000000000000000000000000000000000000000000000000000000000000000000000000000000000000000000010000000000000000000000000000000000000000000000000000000000000000000000000000000000000000000000001111111000000010000000000000000 S"
b00000000000000000000000000000000000000000000000000000000000000000000000000000000000000000000000000000000000000000000010000000000000000000000000000000000000000000000000000000000000000000000000000000000000000000000001111111000000010000000000000000 ["
b00000000000000000000000000000000000000000000000000000000000000000000000000000000000000000000000000000000000000000000010000000000000000000000000000000000000000000000000000000000000000000000000000000000000000000000001111111000000010000000000000000 c"
b11111 k"
b0000010000000000 y"
b0000001000000000 {"
b00000000000000000000000000000000000000000000000000000000000000000000000000000000000000000000000000000000000000000000010000000000000000000000000000000000000000000000000000000000000000000000000000000000000000000000001111111000000010000000000000000 )#
b00000010 C#
b00000000000000000000000000100000 )$
1*$
1+$
19$
#3
0*$
#4
1*$
#5
0*$
#6
1*$
0+$
#7
0*$
#8
1*$
1+$
#9
0*$
#10
1*$
#11
0*$
#12
1*$
0+$
#13
0*$
#14
1*$
1+$
#15
0*$
#16
1*$
#17
0*$
#18
1*$
0+$
#19
0*$
#20
1*$
1+$
#21
0*$
#22
1*$
#23
0*$
#24
1*$
0+$
#25
0*$
#26
1*$
1+$
#27
0*$
#28
1*$
#29
0*$
#30
1*$
0+$
#31
0*$
#32
1*$
1+$
#33
0*$
#34
1*$
#35
0*$
#36
1*$
0+$
#37
0*$
#38
1*$
1+$
#39
0*$
#40
1*$
#41
0*$
#42
1*$
0+$
#43
0*$
#44
1*$
1+$
#45
0*$
#46
1*$
#47
0*$
#48
1*$
0+$
#49
0*$
#50
1*$
1+$
#51
0*$
#52
1*$
#53
0*$
#54
1*$
0+$
#55
0*$
#56
1*$
1+$
#57
0*$
#58
1*$
#59
0*$
#60
1*$
0+$
#61
0*$
#62
1*$
1+$
#63
0*$
#64
1*$
#65
0*$
#66
1*$
#67
0*$
#68
1*$
0+$
#69
0*$
#70
1*$
1+$
#71
0*$
#72
1*$
#73
0*$
#74
1*$
0+$
#75
0*$
#76
1*$
1+$
#77
0*$
#78
1*$
#79
0*$
#80
1*$
0+$
#81
0*$
#82
1*$
1+$
#83
0*$
#84
1*$
#85
0*$
#86
1*$
0+$
#87
0*$
#88
1*$
1+$
#89
0*$
#90
1*$
#91
0*$
#92
1*$
0+$
#93
0*$
#94
1*$
1+$
#95
0*$
#96
1*$
#97
0*$
#98
1*$
0+$
#99
0*$
#100
1*$
1+$
#101
0*$
#102
1*$
#103
0*$
#104
1*$
0+$
#105
0*$
#106
1*$
1+$
#107
0*$
#108
1*$
#109
0*$
#110
1*$
0+$
#111
0*$
#112
1*$
1+$
#113
0*$
#114
1*$
#115
0*$
#116
1*$
0+$
#117
0*$
#118
1*$
1+$
#119
0*$
#120
1*$
#121
0*$
#122
1*$
0+$
#123
0*$
#124
1*$
1+$
#125
0*$
#126
1*$
#127
0*$
#128
1*$
#129
0*$
#130
1*$
0+$
#131
0*$
#132
1*$
1+$
#133
0*$
#134
1*$
#135
0*$
#136
1*$
0+$
#137
0*$
#138
1*$
1+$
#139
0*$
#140
1*$
#141
0*$
#142
1*$
0+$
#143
0*$
#144
1*$
1+$
#145
0*$
#146
1*$
#147
0*$
#148
1*$
0+$
#149
0*$
#150
1*$
1+$
#151
0*$
#152
1*$
#153
0*$
#154
1*$
0+$
#155
0*$
#156
1*$
1+$
#157
0*$
#158
1*$
#159
0*$
